{
  "project_info": {
    "project_number": "1041280935221",
    "firebase_url": "https://mara-fcb3c.firebaseio.com",
    "project_id": "mara-fcb3c",
    "storage_bucket": "mara-fcb3c.appspot.com"
  },
  "client": [
    {
      "client_info": {
        "mobilesdk_app_id": "1:1041280935221:android:6bfa3d5119dd720a",
        "android_client_info": {
          "package_name": "org.mara.collect.android"
        }
      },
      "oauth_client": [
        {
          "client_id": "1041280935221-mocl0vhj9rtjusmqsp37m8mmso93gqik.apps.googleusercontent.com",
          "client_type": 1,
          "android_info": {
            "package_name": "org.mara.collect.android",
            "certificate_hash": "64afe457e5ccccb2b1da477a0afd9b49613bb89e"
          }
        },
        {
          "client_id": "1041280935221-56bcok69897tbifkkpbbmsg2pjo5q6f6.apps.googleusercontent.com",
          "client_type": 3
        }
      ],
      "api_key": [
        {
          "current_key": "AIzaSyAc4ZYG2Y6jlRUfCPinnEr-Qzl-Urc4eOA"
        }
      ],
      "services": {
        "analytics_service": {
          "status": 2,
          "analytics_property": {
            "tracking_id": "UA-91951913-1"
          }        },
        "appinvite_service": {
          "status": 2,
          "other_platform_oauth_client": [
            {
              "client_id": "1041280935221-56bcok69897tbifkkpbbmsg2pjo5q6f6.apps.googleusercontent.com",
              "client_type": 3
            }
          ]
        },
        "ads_service": {
          "status": 2
        }
      }
    }
  ],
  "configuration_version": "1"
}